Homework 5
…
## [1] 476 168

## # A tibble: 476 x 1
##    bagclass
##       <dbl>
##  1        2
##  2        2
##  3        2
##  4        2
##  5        2
##  6        2
##  7        2
##  8        2
##  9        2
## 10        2
## # ... with 466 more rows
…
